HW.vcd
$date
	Sun Sep 29 06:12:22 2024
$end
$version
	Icarus Verilog
$end
$timescale
	1s
$end
$scope module t_adder_subtractor $end
$var wire 3 ! Sum [2:0] $end
$var wire 1 " C_out $end
$var reg 3 # A [2:0] $end
$var reg 3 $ B [2:0] $end
$var reg 1 % mode $end
$scope module uut $end
$var wire 3 & A [2:0] $end
$var wire 3 ' B [2:0] $end
$var wire 1 % mode $end
$var wire 3 ( Sum [2:0] $end
$var wire 1 " C_out $end
$var wire 3 ) B_complement [2:0] $end
$scope module RCA $end
$var wire 3 * A [2:0] $end
$var wire 3 + B [2:0] $end
$var wire 1 , C_in $end
$var wire 3 - Sum [2:0] $end
$var wire 1 " C_out $end
$var wire 1 . C2 $end
$var wire 1 / C1 $end
$scope module FA0 $end
$var wire 1 / C $end
$var wire 1 0 x $end
$var wire 1 1 y $end
$var wire 1 , z $end
$var wire 1 2 S1 $end
$var wire 1 3 S $end
$var wire 1 4 C2 $end
$var wire 1 5 C1 $end
$scope module HA1 $end
$var wire 1 5 C $end
$var wire 1 2 S $end
$var wire 1 0 x $end
$var wire 1 1 y $end
$upscope $end
$scope module HA2 $end
$var wire 1 4 C $end
$var wire 1 3 S $end
$var wire 1 2 x $end
$var wire 1 , y $end
$upscope $end
$upscope $end
$scope module FA1 $end
$var wire 1 . C $end
$var wire 1 6 x $end
$var wire 1 7 y $end
$var wire 1 / z $end
$var wire 1 8 S1 $end
$var wire 1 9 S $end
$var wire 1 : C2 $end
$var wire 1 ; C1 $end
$scope module HA1 $end
$var wire 1 ; C $end
$var wire 1 8 S $end
$var wire 1 6 x $end
$var wire 1 7 y $end
$upscope $end
$scope module HA2 $end
$var wire 1 : C $end
$var wire 1 9 S $end
$var wire 1 8 x $end
$var wire 1 / y $end
$upscope $end
$upscope $end
$scope module FA2 $end
$var wire 1 " C $end
$var wire 1 < x $end
$var wire 1 = y $end
$var wire 1 . z $end
$var wire 1 > S1 $end
$var wire 1 ? S $end
$var wire 1 @ C2 $end
$var wire 1 A C1 $end
$scope module HA1 $end
$var wire 1 A C $end
$var wire 1 > S $end
$var wire 1 < x $end
$var wire 1 = y $end
$upscope $end
$scope module HA2 $end
$var wire 1 @ C $end
$var wire 1 ? S $end
$var wire 1 > x $end
$var wire 1 . y $end
$upscope $end
$upscope $end
$upscope $end
$upscope $end
$upscope $end
$enddefinitions $end
$comment Show the parameter values. $end
$dumpall
$end
#0
$dumpvars
0A
1@
0?
1>
0=
1<
0;
1:
09
18
17
06
15
04
03
02
11
10
1/
1.
b0 -
0,
b11 +
b101 *
b11 )
b0 (
b11 '
b101 &
0%
b11 $
b101 #
1"
b0 !
$end
#10
0.
19
0:
b10 !
b10 (
b10 -
0?
0@
08
0>
1A
07
1=
b101 )
b101 +
1%
#20
1;
1.
17
0=
19
0:
b110 !
b110 (
b110 -
1?
0"
b11 )
b11 +
08
0>
0A
16
0<
b101 $
b101 '
b11 #
b11 &
b11 *
#30
13
0/
19
0:
0.
0"
12
05
18
0;
b111 !
b111 (
b111 -
1?
0@
01
07
1>
b0 )
b0 +
1<
0%
b0 $
b0 '
b111 #
b111 &
b111 *
#40
1%
#50
11
13
09
b1 !
b1 (
b1 -
0?
b1 )
b1 +
12
08
0>
00
06
0<
b111 $
b111 '
b0 #
b0 &
b0 *
#60
1"
19
1A
03
1/
b10 !
b10 (
b10 -
0?
1=
02
15
0>
b101 )
b101 +
10
1<
0%
b101 $
b101 '
b101 #
b101 &
b101 *
#70
1@
1.
09
1:
b0 !
b0 (
b0 -
0?
1"
18
1>
0A
17
0=
b11 )
b11 +
1%
